Capítulo 4 Uso de GBIF y modelos de distribucion de especies | Uso de GBIF
…
# Registros de presencia de manigordos en Costa Rica,
# georreferenciados y sin problemas detectados de
# georreferenciación (ej. coordenadas invertidas)
occ_search(scientificName = "Octodon degus", country = "CL",
    hasCoordinate = TRUE, hasGeospatialIssue = FALSE)

## Records found [580] 
## Records returned [500] 
## No. unique hierarchies [1] 
## No. media records [500] 
## No. facets [0] 
## Args [hasCoordinate=TRUE, hasGeospatialIssue=FALSE, occurrenceStatus=PRESENT,
##      limit=500, offset=0, scientificName=Octodon degus, country=CL, fields=all] 
## # A tibble: 500 × 134
##    key        scientificName  decimalLatitude decimalLongitude issues datasetKey
##    <chr>      <chr>                     <dbl>            <dbl> <chr>  <chr>     
##  1 4014955942 Octodon degus …           -30.7            -71.4 cdc,c… 50c9509d-…
##  2 4028863766 Octodon degus …           -31.5            -71.1 cdc,c… 50c9509d-…
##  3 4028998269 Octodon degus …           -30.0            -71.4 cdc,c… 50c9509d-…
##  4 4096751875 Octodon degus …           -30.6            -71.7 cdc,c… 50c9509d-…
##  5 4103090286 Octodon degus …           -29.7            -71.3 cdc,c… 50c9509d-…
##  6 4133736635 Octodon degus …           -30.7            -71.4 cdc,c… 50c9509d-…
##  7 4129678551 Octodon degus …           -30.7            -71.4 cdc,c… 50c9509d-…
##  8 4127290417 Octodon degus …           -33.2            -70.9 cdc,c… 50c9509d-…
##  9 4133952585 Octodon degus …           -30.0            -71.4 cdc,c… 50c9509d-…
## 10 4133949246 Octodon degus …           -30.0            -70.8 cdc,c… 50c9509d-…
## # ℹ 490 more rows
## # ℹ 128 more variables: publishingOrgKey <chr>, installationKey <chr>,
## #   hostingOrganizationKey <chr>, publishingCountry <chr>, protocol <chr>,
## #   lastCrawled <chr>, lastParsed <chr>, crawlId <int>, basisOfRecord <chr>,
## #   occurrenceStatus <chr>, taxonKey <int>, kingdomKey <int>, phylumKey <int>,
## #   classKey <int>, orderKey <int>, familyKey <int>, genusKey <int>,
## #   speciesKey <int>, acceptedTaxonKey <int>, acceptedScientificName <chr>, …
…
